cpu.vcd
$date
	Wed Dec 10 23:36:17 2025
$end
$version
	Icarus Verilog
$end
$timescale
	1ps
$end
$scope module tb_CPU $end
$var reg 1 ! clk $end
$var reg 1 " rst $end
$scope module dut $end
$var wire 1 ! clk $end
$var wire 1 " rst $end
$var wire 32 # branch_target [31:0] $end
$var wire 1 $ Zero $end
$var wire 32 % WB_WriteData [31:0] $end
$var wire 5 & WB_WriteAddr_sig [4:0] $end
$var wire 5 ' WB_WriteAddr [4:0] $end
$var wire 1 ( WB_RegWrite_sig $end
$var wire 1 ) WB_RegWrite $end
$var wire 32 * WB_ReadData [31:0] $end
$var wire 1 + WB_MemtoReg $end
$var wire 32 , WB_ALU_result [31:0] $end
$var wire 1 - PC_Write $end
$var wire 32 . MEM_rt_data [31:0] $end
$var wire 5 / MEM_WriteAddr_pass [4:0] $end
$var wire 5 0 MEM_WriteAddr [4:0] $end
$var wire 1 1 MEM_RegWrite_pass $end
$var wire 1 2 MEM_RegWrite $end
$var wire 32 3 MEM_ReadData [31:0] $end
$var wire 1 4 MEM_MemtoReg_pass $end
$var wire 1 5 MEM_MemtoReg $end
$var wire 1 6 MEM_MemWrite $end
$var wire 1 7 MEM_MemRead $end
$var wire 32 8 MEM_ALU_result_pass [31:0] $end
$var wire 32 9 MEM_ALU_result [31:0] $end
$var wire 32 : IF_pc_plus4 [31:0] $end
$var wire 32 ; IF_instr [31:0] $end
$var wire 1 < IF_ID_Write $end
$var wire 32 = ID_rt_data [31:0] $end
$var wire 5 > ID_rt_addr [4:0] $end
$var wire 32 ? ID_rs_data [31:0] $end
$var wire 5 @ ID_rs_addr [4:0] $end
$var wire 5 A ID_rd_addr [4:0] $end
$var wire 32 B ID_pc_plus4 [31:0] $end
$var wire 32 C ID_instr [31:0] $end
$var wire 32 D ID_imm [31:0] $end
$var wire 6 E ID_funct [5:0] $end
$var wire 1 F ID_RegWrite $end
$var wire 1 G ID_MemtoReg $end
$var wire 1 H ID_MemWrite $end
$var wire 1 I ID_MemRead $end
$var wire 1 J ID_EX_Flush $end
$var wire 1 K ID_ALUSrc $end
$var wire 2 L ID_ALUOp [1:0] $end
$var wire 2 M ForwardB [1:0] $end
$var wire 2 N ForwardA [1:0] $end
$var wire 32 O EX_rt_forwarded [31:0] $end
$var wire 32 P EX_rt_data [31:0] $end
$var wire 5 Q EX_rt_addr_pass [4:0] $end
$var wire 5 R EX_rt_addr [4:0] $end
$var wire 32 S EX_rs_data [31:0] $end
$var wire 5 T EX_rs_addr_pass [4:0] $end
$var wire 5 U EX_rs_addr [4:0] $end
$var wire 5 V EX_rd_addr [4:0] $end
$var wire 32 W EX_imm [31:0] $end
$var wire 6 X EX_funct [5:0] $end
$var wire 5 Y EX_dest_reg [4:0] $end
$var wire 1 Z EX_RegWrite_pass $end
$var wire 1 [ EX_RegWrite $end
$var wire 1 \ EX_MemtoReg_pass $end
$var wire 1 ] EX_MemtoReg $end
$var wire 1 ^ EX_MemWrite_pass $end
$var wire 1 _ EX_MemWrite $end
$var wire 1 ` EX_MemRead_pass $end
$var wire 1 a EX_MemRead $end
$var wire 32 b EX_ALU_result [31:0] $end
$var wire 1 c EX_ALUSrc $end
$var wire 2 d EX_ALUOp [1:0] $end
$var wire 1 e Branch $end
$scope module EX_MEM_reg $end
$var wire 1 ! clk $end
$var wire 1 " rst $end
$var wire 32 f rt_i [31:0] $end
$var wire 5 g rd_i [4:0] $end
$var wire 1 Z RegWrite_i $end
$var wire 1 \ MemtoReg_i $end
$var wire 1 ^ MemWrite_i $end
$var wire 1 ` MemRead_i $end
$var wire 32 h ALU_i [31:0] $end
$var reg 32 i ALU_o [31:0] $end
$var reg 1 7 MemRead_o $end
$var reg 1 6 MemWrite_o $end
$var reg 1 5 MemtoReg_o $end
$var reg 1 2 RegWrite_o $end
$var reg 5 j rd_o [4:0] $end
$var reg 32 k rt_o [31:0] $end
$upscope $end
$scope module EX_stage $end
$var wire 32 l ALU_result_o [31:0] $end
$var wire 32 m EXMEM_ALU_i [31:0] $end
$var wire 1 ` MemRead_o $end
$var wire 1 ^ MemWrite_o $end
$var wire 1 \ MemtoReg_o $end
$var wire 1 Z RegWrite_o $end
$var wire 5 n dest_reg_o [4:0] $end
$var wire 5 o rs_addr_o [4:0] $end
$var wire 5 p rt_addr_o [4:0] $end
$var wire 32 q rt_data_o [31:0] $end
$var wire 32 r rt_data_i [31:0] $end
$var wire 5 s rt_addr_i [4:0] $end
$var wire 32 t rs_data_i [31:0] $end
$var wire 5 u rs_addr_i [4:0] $end
$var wire 5 v rd_addr_i [4:0] $end
$var wire 32 w imm_i [31:0] $end
$var wire 6 x funct_i [5:0] $end
$var wire 5 y dest_reg [4:0] $end
$var wire 1 [ RegWrite_i $end
$var wire 1 ] MemtoReg_i $end
$var wire 1 _ MemWrite_i $end
$var wire 1 a MemRead_i $end
$var wire 32 z MEMWB_WriteData_i [31:0] $end
$var wire 2 { ForwardB_i [1:0] $end
$var wire 2 | ForwardA_i [1:0] $end
$var wire 32 } ALU_src2 [31:0] $end
$var wire 32 ~ ALU_result [31:0] $end
$var wire 1 c ALUSrc_i $end
$var wire 2 !" ALUOp_i [1:0] $end
$var reg 4 "" ALU_control [3:0] $end
$var reg 32 #" ALU_src1 [31:0] $end
$var reg 32 $" rt_forwarded [31:0] $end
$scope module alu $end
$var wire 4 %" ALU_control [3:0] $end
$var wire 32 &" src1 [31:0] $end
$var wire 32 '" src2 [31:0] $end
$var reg 32 (" result [31:0] $end
$upscope $end
$upscope $end
$scope module ID_EX_reg $end
$var wire 1 ! clk $end
$var wire 1 " rst $end
$var wire 32 )" rt_i [31:0] $end
$var wire 5 *" rt_addr_i [4:0] $end
$var wire 32 +" rs_i [31:0] $end
$var wire 5 ," rs_addr_i [4:0] $end
$var wire 5 -" rd_addr_i [4:0] $end
$var wire 32 ." imm_i [31:0] $end
$var wire 6 /" funct_i [5:0] $end
$var wire 1 F RegWrite_i $end
$var wire 1 G MemtoReg_i $end
$var wire 1 H MemWrite_i $end
$var wire 1 I MemRead_i $end
$var wire 1 J ID_EX_Flush $end
$var wire 1 K ALUSrc_i $end
$var wire 2 0" ALUOp_i [1:0] $end
$var reg 2 1" ALUOp_o [1:0] $end
$var reg 1 c ALUSrc_o $end
$var reg 1 a MemRead_o $end
$var reg 1 _ MemWrite_o $end
$var reg 1 ] MemtoReg_o $end
$var reg 1 [ RegWrite_o $end
$var reg 6 2" funct_o [5:0] $end
$var reg 32 3" imm_o [31:0] $end
$var reg 5 4" rd_addr_o [4:0] $end
$var reg 5 5" rs_addr_o [4:0] $end
$var reg 32 6" rs_o [31:0] $end
$var reg 5 7" rt_addr_o [4:0] $end
$var reg 32 8" rt_o [31:0] $end
$upscope $end
$scope module ID_stage $end
$var wire 1 ! clk $end
$var wire 6 9" funct_o [5:0] $end
$var wire 5 :" rd_addr_o [4:0] $end
$var wire 5 ;" rs_addr_o [4:0] $end
$var wire 1 " rst $end
$var wire 5 <" rt_addr_o [4:0] $end
$var wire 32 =" rt_data_o [31:0] $end
$var wire 5 >" rt [4:0] $end
$var wire 32 ?" rs_data_o [31:0] $end
$var wire 5 @" rs [4:0] $end
$var wire 5 A" rd [4:0] $end
$var wire 32 B" pc_plus4_i [31:0] $end
$var wire 6 C" opcode [5:0] $end
$var wire 32 D" instr_i [31:0] $end
$var wire 32 E" imm_o [31:0] $end
$var wire 16 F" imm16 [15:0] $end
$var wire 6 G" funct [5:0] $end
$var wire 32 H" branch_target_o [31:0] $end
$var wire 1 $ Zero_o $end
$var wire 32 I" WB_WriteData_i [31:0] $end
$var wire 5 J" WB_WriteAddr_i [4:0] $end
$var wire 1 ) WB_RegWrite_i $end
$var wire 1 F RegWrite_o $end
$var wire 1 G MemtoReg_o $end
$var wire 1 H MemWrite_o $end
$var wire 1 I MemRead_o $end
$var wire 1 e Branch_o $end
$var wire 1 K ALUSrc_o $end
$var wire 2 K" ALUOp_o [1:0] $end
$scope module DEC $end
$var wire 6 L" instr_op_i [5:0] $end
$var reg 2 M" ALUOp_o [1:0] $end
$var reg 1 K ALUSrc_o $end
$var reg 1 e Branch_o $end
$var reg 1 I MemRead_o $end
$var reg 1 H MemWrite_o $end
$var reg 1 G MemtoReg_o $end
$var reg 1 F RegWrite_o $end
$upscope $end
$scope module RF $end
$var wire 5 N" RSaddr_i [4:0] $end
$var wire 5 O" RTaddr_i [4:0] $end
$var wire 1 ! clk $end
$var wire 1 " rst $end
$var wire 1 ) RegWrite_i $end
$var wire 32 P" RTdata_o [31:0] $end
$var wire 32 Q" RSdata_o [31:0] $end
$var wire 32 R" RDdata_i [31:0] $end
$var wire 5 S" RDaddr_i [4:0] $end
$var integer 32 T" i [31:0] $end
$upscope $end
$scope module SE $end
$var wire 16 U" data_i [15:0] $end
$var wire 32 V" data_o [31:0] $end
$upscope $end
$upscope $end
$scope module IF_ID_reg $end
$var wire 1 ! clk $end
$var wire 1 " rst $end
$var wire 32 W" pc_i [31:0] $end
$var wire 32 X" instr_i [31:0] $end
$var wire 1 < IF_ID_Write $end
$var reg 32 Y" instr_o [31:0] $end
$var reg 32 Z" pc_o [31:0] $end
$upscope $end
$scope module IF_stage $end
$var wire 1 e Branch_i $end
$var wire 1 $ Zero_i $end
$var wire 1 [" branch_taken $end
$var wire 32 \" branch_target_i [31:0] $end
$var wire 1 ! clk $end
$var wire 1 " rst $end
$var wire 32 ]" pc_plus4_o [31:0] $end
$var wire 32 ^" pc_next [31:0] $end
$var wire 32 _" instr_o [31:0] $end
$var wire 1 - PC_Write $end
$var reg 32 `" pc_reg [31:0] $end
$scope module IMEM $end
$var wire 32 a" addr_i [31:0] $end
$var wire 32 b" instr_o [31:0] $end
$upscope $end
$upscope $end
$scope module MEM_WB_reg $end
$var wire 1 ! clk $end
$var wire 1 " rst $end
$var wire 32 c" read_data_i [31:0] $end
$var wire 5 d" rd_i [4:0] $end
$var wire 1 1 RegWrite_i $end
$var wire 1 4 MemtoReg_i $end
$var wire 32 e" ALU_i [31:0] $end
$var reg 32 f" ALU_o [31:0] $end
$var reg 1 + MemtoReg_o $end
$var reg 1 ) RegWrite_o $end
$var reg 5 g" rd_o [4:0] $end
$var reg 32 h" read_data_o [31:0] $end
$upscope $end
$scope module MEM_stage $end
$var wire 32 i" ALU_result_i [31:0] $end
$var wire 32 j" ALU_result_o [31:0] $end
$var wire 1 7 MemRead_i $end
$var wire 1 6 MemWrite_i $end
$var wire 1 5 MemtoReg_i $end
$var wire 1 4 MemtoReg_o $end
$var wire 1 2 RegWrite_i $end
$var wire 1 1 RegWrite_o $end
$var wire 1 ! clk $end
$var wire 5 k" dest_reg_i [4:0] $end
$var wire 5 l" dest_reg_o [4:0] $end
$var wire 1 " rst $end
$var wire 32 m" rt_data_i [31:0] $end
$var wire 32 n" read_data_o [31:0] $end
$scope module DMEM $end
$var wire 1 7 MemRead_i $end
$var wire 1 6 MemWrite_i $end
$var wire 32 o" addr_i [31:0] $end
$var wire 1 ! clk $end
$var wire 32 p" write_data_i [31:0] $end
$var wire 32 q" read_data_o [31:0] $end
$upscope $end
$upscope $end
$scope module WB_stage $end
$var wire 32 r" ALU_result_i [31:0] $end
$var wire 1 + MemtoReg_i $end
$var wire 1 ) RegWrite_i $end
$var wire 1 ( WB_RegWrite_o $end
$var wire 5 s" WB_WriteAddr_o [4:0] $end
$var wire 5 t" dest_reg_i [4:0] $end
$var wire 32 u" read_data_i [31:0] $end
$var wire 32 v" WB_WriteData_o [31:0] $end
$upscope $end
$scope module forward $end
$var wire 1 2 EX_MEM_RegWrite $end
$var wire 5 w" EX_MEM_rd [4:0] $end
$var wire 5 x" ID_EX_rs [4:0] $end
$var wire 5 y" ID_EX_rt [4:0] $end
$var wire 1 ) MEM_WB_RegWrite $end
$var wire 5 z" MEM_WB_rd [4:0] $end
$var reg 2 {" ForwardA [1:0] $end
$var reg 2 |" ForwardB [1:0] $end
$upscope $end
$scope module hazard $end
$var wire 1 a ID_EX_MemRead $end
$var wire 5 }" ID_EX_rt [4:0] $end
$var wire 5 ~" IF_ID_rs [4:0] $end
$var wire 5 !# IF_ID_rt [4:0] $end
$var reg 1 J ID_EX_Flush $end
$var reg 1 < IF_ID_Write $end
$var reg 1 - PC_Write $end
$upscope $end
$upscope $end
$upscope $end
$enddefinitions $end
$comment Show the parameter values. $end
$dumpall
$end
#0
$dumpvars
b0 !#
b0 ~"
b0 }"
b0 |"
b0 {"
b0 z"
b0 y"
b0 x"
b0 w"
b0 v"
b0 u"
b0 t"
b0 s"
b0 r"
b0 q"
b0 p"
b0 o"
b0 n"
b0 m"
b0 l"
b0 k"
b0 j"
b0 i"
b0 h"
b0 g"
b0 f"
b0 e"
b0 d"
b0 c"
b0 b"
b0 a"
b0 `"
b0 _"
b100 ^"
b100 ]"
b0 \"
0["
b0 Z"
b0 Y"
b0 X"
b100 W"
b0 V"
b0 U"
b100000 T"
b0 S"
b0 R"
b0 Q"
b0 P"
b0 O"
b0 N"
b10 M"
b0 L"
b10 K"
b0 J"
b0 I"
b0 H"
b0 G"
b0 F"
b0 E"
b0 D"
b0 C"
b0 B"
b0 A"
b0 @"
b0 ?"
b0 >"
b0 ="
b0 <"
b0 ;"
b0 :"
b0 9"
b0 8"
b0 7"
b0 6"
b0 5"
b0 4"
b0 3"
b0 2"
b0 1"
b10 0"
b0 /"
b0 ."
b0 -"
b0 ,"
b0 +"
b0 *"
b0 )"
b0 ("
b0 '"
b0 &"
b10 %"
b0 $"
b0 #"
b10 ""
b0 !"
b0 ~
b0 }
b0 |
b0 {
b0 z
b0 y
b0 x
b0 w
b0 v
b0 u
b0 t
b0 s
b0 r
b0 q
b0 p
b0 o
b0 n
b0 m
b0 l
b0 k
b0 j
b0 i
b0 h
b0 g
b0 f
0e
b0 d
0c
b0 b
0a
0`
0_
0^
0]
0\
0[
0Z
b0 Y
b0 X
b0 W
b0 V
b0 U
b0 T
b0 S
b0 R
b0 Q
b0 P
b0 O
b0 N
b0 M
b10 L
0K
0J
0I
0H
0G
1F
b0 E
b0 D
b0 C
b0 B
b0 A
b0 @
b0 ?
b0 >
b0 =
1<
b0 ;
b100 :
b0 9
b0 8
07
06
05
04
b0 3
02
01
b0 0
b0 /
b0 .
1-
b0 ,
0+
b0 *
0)
0(
b0 '
b0 &
b0 %
1$
b0 #
1"
0!
$end
#5000
b100000 T"
1!
#10000
0!
#15000
b100000 T"
1!
#20000
0!
0"
#25000
b1000 ^"
b10 d
b10 !"
b10 1"
1Z
1[
b100 #
b100 H"
b100 \"
b100 B
b100 B"
b100 Z"
b1000 :
b1000 W"
b1000 ]"
b100 `"
b100 a"
1!
#30000
0!
#35000
b1100 ^"
b1100 :
b1100 W"
b1100 ]"
b1000 `"
b1000 a"
b1000 #
b1000 H"
b1000 \"
b1000 B
b1000 B"
b1000 Z"
11
12
1!
#40000
0!
#45000
b10000 ^"
1(
1)
b1100 #
b1100 H"
b1100 \"
b1100 B
b1100 B"
b1100 Z"
b10000 :
b10000 W"
b10000 ]"
b1100 `"
b1100 a"
1!
#50000
0!
#55000
b10100 ^"
b100000000000010000000000000101 ;
b100000000000010000000000000101 X"
b100000000000010000000000000101 _"
b100000000000010000000000000101 b"
b10100 :
b10100 W"
b10100 ]"
b10000 `"
b10000 a"
b10000 #
b10000 H"
b10000 \"
b10000 B
b10000 B"
b10000 Z"
1!
#60000
0!
#65000
1K
b0 L
b0 0"
b0 K"
b0 M"
1F
b101 D
b101 ."
b101 E"
b101 V"
b101 F"
b101 U"
b101 E
b101 /"
b101 9"
b101 G"
b1 >
b1 *"
b1 <"
b1 !#
b1 >"
b1 O"
b1000 C"
b1000 L"
b11000 ^"
b100000000000100000000000000111 ;
b100000000000100000000000000111 X"
b100000000000100000000000000111 _"
b100000000000100000000000000111 b"
b101000 #
b101000 H"
b101000 \"
b10100 B
b10100 B"
b10100 Z"
b100000000000010000000000000101 C
b100000000000010000000000000101 D"
b100000000000010000000000000101 Y"
b11000 :
b11000 W"
b11000 ]"
b10100 `"
b10100 a"
1!
#70000
0!
#75000
b101 b
b101 h
b101 l
b101 ~
b101 ("
b11100 ^"
b1000100001100000100000 ;
b1000100001100000100000 X"
b1000100001100000100000 _"
b1000100001100000100000 b"
b111 D
b111 ."
b111 E"
b111 V"
b111 F"
b111 U"
b111 E
b111 /"
b111 9"
b111 G"
b10 >
b10 *"
b10 <"
b10 !#
b10 >"
b10 O"
b101 }
b101 '"
b1 Y
b1 g
b1 n
b1 y
b11100 :
b11100 W"
b11100 ]"
b11000 `"
b11000 a"
b110100 #
b110100 H"
b110100 \"
b11000 B
b11000 B"
b11000 Z"
b100000000000100000000000000111 C
b100000000000100000000000000111 D"
b100000000000100000000000000111 Y"
b1 Q
b1 p
b1 R
b1 s
b1 7"
b1 y"
b1 }"
b101 W
b101 w
b101 3"
b101 X
b101 x
b101 2"
1c
b0 d
b0 !"
b0 1"
1!
#80000
0!
#85000
b111 b
b111 h
b111 l
b111 ~
b111 ("
b10 L
b10 0"
b10 K"
b10 M"
0K
1F
b10 Y
b10 g
b10 n
b10 y
b111 }
b111 '"
b1100000100000 D
b1100000100000 ."
b1100000100000 E"
b1100000100000 V"
b1100000100000 F"
b1100000100000 U"
b100000 E
b100000 /"
b100000 9"
b100000 G"
b11 A
b11 -"
b11 :"
b11 A"
b1 @
b1 ,"
b1 ;"
b1 ~"
b1 @"
b1 N"
b0 C"
b0 L"
b100000 ^"
b1000100001100000100010 ;
b1000100001100000100010 X"
b1000100001100000100010 _"
b1000100001100000100010 b"
b1 /
b1 d"
b1 l"
b1 0
b1 j
b1 k"
b1 w"
b101 8
b101 e"
b101 j"
b101 9
b101 i
b101 m
b101 i"
b101 o"
b10 Q
b10 p
b10 R
b10 s
b10 7"
b10 y"
b10 }"
b111 W
b111 w
b111 3"
b111 X
b111 x
b111 2"
b110000010011100 #
b110000010011100 H"
b110000010011100 \"
b11100 B
b11100 B"
b11100 Z"
b1000100001100000100000 C
b1000100001100000100000 D"
b1000100001100000100000 Y"
b100000 :
b100000 W"
b100000 ]"
b11100 `"
b11100 a"
1!
#90000
0!
#95000
b1100 b
b1100 h
b1100 l
b1100 ~
b1100 ("
0$
b101 ?
b101 +"
b101 ?"
b101 Q"
b100100 ^"
b1000100001100000100100 ;
b1000100001100000100100 X"
b1000100001100000100100 _"
b1000100001100000100100 b"
b1100000100010 D
b1100000100010 ."
b1100000100010 E"
b1100000100010 V"
b1100000100010 F"
b1100000100010 U"
b100010 E
b100010 /"
b100010 9"
b100010 G"
b11 Y
b11 g
b11 n
b11 y
b111 O
b111 f
b111 q
b111 $"
b101 #"
b101 &"
b10 M
b10 {
b10 |"
b1 N
b1 |
b1 {"
b101 %
b101 z
b101 I"
b101 R"
b101 v"
b100100 :
b100100 W"
b100100 ]"
b100000 `"
b100000 a"
b110000010101000 #
b110000010101000 H"
b110000010101000 \"
b100000 B
b100000 B"
b100000 Z"
b1000100001100000100010 C
b1000100001100000100010 D"
b1000100001100000100010 Y"
b11 V
b11 v
b11 4"
b1 T
b1 o
b1 U
b1 u
b1 5"
b1 x"
b1100000100000 W
b1100000100000 w
b1100000100000 3"
b100000 X
b100000 x
b100000 2"
0c
b10 d
b10 !"
b10 1"
b10 /
b10 d"
b10 l"
b10 0
b10 j
b10 k"
b10 w"
b111 8
b111 e"
b111 j"
b111 9
b111 i
b111 m
b111 i"
b111 o"
b1 &
b1 s"
b1 '
b1 J"
b1 S"
b1 g"
b1 t"
b1 z"
b101 ,
b101 f"
b101 r"
1!
#100000
0!
#105000
b111 =
b111 )"
b111 ="
b111 P"
b101 ?
b101 +"
b101 ?"
b101 Q"
b111 }
b111 '"
b11111111111111111111111111111110 b
b11111111111111111111111111111110 h
b11111111111111111111111111111110 l
b11111111111111111111111111111110 ~
b11111111111111111111111111111110 ("
b111 %
b111 z
b111 I"
b111 R"
b111 v"
b1 M
b1 {
b1 |"
b0 N
b0 |
b0 {"
b111 O
b111 f
b111 q
b111 $"
b110 ""
b110 %"
b1100000100100 D
b1100000100100 ."
b1100000100100 E"
b1100000100100 V"
b1100000100100 F"
b1100000100100 U"
b100100 E
b100100 /"
b100100 9"
b100100 G"
b101000 ^"
b1000100001100000100101 ;
b1000100001100000100101 X"
b1000100001100000100101 _"
b1000100001100000100101 b"
b10 &
b10 s"
b10 '
b10 J"
b10 S"
b10 g"
b10 t"
b10 z"
b111 ,
b111 f"
b111 r"
b11 /
b11 d"
b11 l"
b11 0
b11 j
b11 k"
b11 w"
b111 .
b111 k
b111 m"
b111 p"
b1100 8
b1100 e"
b1100 j"
b1100 9
b1100 i
b1100 m
b1100 i"
b1100 o"
b1100000100010 W
b1100000100010 w
b1100000100010 3"
b101 S
b101 t
b101 6"
b100010 X
b100010 x
b100010 2"
b110000010110100 #
b110000010110100 H"
b110000010110100 \"
b100100 B
b100100 B"
b100100 Z"
b1000100001100000100100 C
b1000100001100000100100 D"
b1000100001100000100100 Y"
b101000 :
b101000 W"
b101000 ]"
b100100 `"
b100100 a"
1!
#110000
0!
#115000
b101 b
b101 h
b101 l
b101 ~
b101 ("
b111 =
b111 )"
b111 ="
b111 P"
b101100 ^"
b1000100001100000101010 ;
b1000100001100000101010 X"
b1000100001100000101010 _"
b1000100001100000101010 b"
b1100000100101 D
b1100000100101 ."
b1100000100101 E"
b1100000100101 V"
b1100000100101 F"
b1100000100101 U"
b100101 E
b100101 /"
b100101 9"
b100101 G"
b0 ""
b0 %"
b0 M
b0 {
b0 |"
b1100 %
b1100 z
b1100 I"
b1100 R"
b1100 v"
b101100 :
b101100 W"
b101100 ]"
b101000 `"
b101000 a"
b110000010111100 #
b110000010111100 H"
b110000010111100 \"
b101000 B
b101000 B"
b101000 Z"
b1000100001100000100101 C
b1000100001100000100101 D"
b1000100001100000100101 Y"
b1100000100100 W
b1100000100100 w
b1100000100100 3"
b111 P
b111 r
b111 8"
b100100 X
b100100 x
b100100 2"
b11111111111111111111111111111110 8
b11111111111111111111111111111110 e"
b11111111111111111111111111111110 j"
b11111111111111111111111111111110 9
b11111111111111111111111111111110 i
b11111111111111111111111111111110 m
b11111111111111111111111111111110 i"
b11111111111111111111111111111110 o"
b11 &
b11 s"
b11 '
b11 J"
b11 S"
b11 g"
b11 t"
b11 z"
b1100 ,
b1100 f"
b1100 r"
1!
#120000
0!
#125000
b111 b
b111 h
b111 l
b111 ~
b111 ("
b11111111111111111111111111111110 %
b11111111111111111111111111111110 z
b11111111111111111111111111111110 I"
b11111111111111111111111111111110 R"
b11111111111111111111111111111110 v"
b1 ""
b1 %"
b1100000101010 D
b1100000101010 ."
b1100000101010 E"
b1100000101010 V"
b1100000101010 F"
b1100000101010 U"
b101010 E
b101010 /"
b101010 9"
b101010 G"
b110000 ^"
b100000001001000000000000000101 ;
b100000001001000000000000000101 X"
b100000001001000000000000000101 _"
b100000001001000000000000000101 b"
b11111111111111111111111111111110 ,
b11111111111111111111111111111110 f"
b11111111111111111111111111111110 r"
b101 8
b101 e"
b101 j"
b101 9
b101 i
b101 m
b101 i"
b101 o"
b1100000100101 W
b1100000100101 w
b1100000100101 3"
b100101 X
b100101 x
b100101 2"
b110000011010100 #
b110000011010100 H"
b110000011010100 \"
b101100 B
b101100 B"
b101100 Z"
b1000100001100000101010 C
b1000100001100000101010 D"
b1000100001100000101010 Y"
b110000 :
b110000 W"
b110000 ]"
b101100 `"
b101100 a"
1!
#130000
0!
#135000
b0 =
b0 )"
b0 ="
b0 P"
1K
b0 L
b0 0"
b0 K"
b0 M"
1F
b1 b
b1 h
b1 l
b1 ~
b1 ("
b110100 ^"
b110100001001010000000000001010 ;
b110100001001010000000000001010 X"
b110100001001010000000000001010 _"
b110100001001010000000000001010 b"
b101 D
b101 ."
b101 E"
b101 V"
b101 F"
b101 U"
b101 E
b101 /"
b101 9"
b101 G"
b0 A
b0 -"
b0 :"
b0 A"
b100 >
b100 *"
b100 <"
b100 !#
b100 >"
b100 O"
b1000 C"
b1000 L"
b111 ""
b111 %"
b101 %
b101 z
b101 I"
b101 R"
b101 v"
b110100 :
b110100 W"
b110100 ]"
b110000 `"
b110000 a"
b1000100 #
b1000100 H"
b1000100 \"
b110000 B
b110000 B"
b110000 Z"
b100000001001000000000000000101 C
b100000001001000000000000000101 D"
b100000001001000000000000000101 Y"
b1100000101010 W
b1100000101010 w
b1100000101010 3"
b101010 X
b101010 x
b101010 2"
b111 8
b111 e"
b111 j"
b111 9
b111 i
b111 m
b111 i"
b111 o"
b101 ,
b101 f"
b101 r"
1!
#140000
0!
#145000
b1010 b
b1010 h
b1010 l
b1010 ~
b1010 ("
0K
0F
b111 %
b111 z
b111 I"
b111 R"
b111 v"
b0 O
b0 f
b0 q
b0 $"
b101 }
b101 '"
b100 Y
b100 g
b100 n
b100 y
b10 ""
b10 %"
b1010 D
b1010 ."
b1010 E"
b1010 V"
b1010 F"
b1010 U"
b1010 E
b1010 /"
b1010 9"
b1010 G"
b101 >
b101 *"
b101 <"
b101 !#
b101 >"
b101 O"
b1101 C"
b1101 L"
b111000 ^"
b101000001001100000000000000101 ;
b101000001001100000000000000101 X"
b101000001001100000000000000101 _"
b101000001001100000000000000101 b"
b111 ,
b111 f"
b111 r"
b1 8
b1 e"
b1 j"
b1 9
b1 i
b1 m
b1 i"
b1 o"
b0 V
b0 v
b0 4"
b100 Q
b100 p
b100 R
b100 s
b100 7"
b100 y"
b100 }"
b101 W
b101 w
b101 3"
b0 P
b0 r
b0 8"
b101 X
b101 x
b101 2"
1c
b0 d
b0 !"
b0 1"
b1011100 #
b1011100 H"
b1011100 \"
b110100 B
b110100 B"
b110100 Z"
b110100001001010000000000001010 C
b110100001001010000000000001010 D"
b110100001001010000000000001010 Y"
b111000 :
b111000 W"
b111000 ]"
b110100 `"
b110100 a"
1!
#150000
0!
#155000
b101 b
b101 h
b101 l
b101 ~
b101 ("
b111100 ^"
b10000001000010000000000000010 ;
b10000001000010000000000000010 X"
b10000001000010000000000000010 _"
b10000001000010000000000000010 b"
b101 D
b101 ."
b101 E"
b101 V"
b101 F"
b101 U"
b101 E
b101 /"
b101 9"
b101 G"
b110 >
b110 *"
b110 <"
b110 !#
b110 >"
b110 O"
b1010 C"
b1010 L"
b101 Y
b101 g
b101 n
b101 y
b0 }
b0 '"
b1 %
b1 z
b1 I"
b1 R"
b1 v"
b111100 :
b111100 W"
b111100 ]"
b111000 `"
b111000 a"
b1001100 #
b1001100 H"
b1001100 \"
b111000 B
b111000 B"
b111000 Z"
b101000001001100000000000000101 C
b101000001001100000000000000101 D"
b101000001001100000000000000101 Y"
b101 Q
b101 p
b101 R
b101 s
b101 7"
b101 y"
b101 }"
b1010 W
b1010 w
b1010 3"
b1010 X
b1010 x
b1010 2"
0c
0Z
0[
b100 /
b100 d"
b100 l"
b100 0
b100 j
b100 k"
b100 w"
b0 .
b0 k
b0 m"
b0 p"
b1010 8
b1010 e"
b1010 j"
b1010 9
b1010 i
b1010 m
b1010 i"
b1010 o"
b1 ,
b1 f"
b1 r"
1!
#160000
0!
#165000
1["
1$
b101 =
b101 )"
b101 ="
b101 P"
1e
b1010 %
b1010 z
b1010 I"
b1010 R"
b1010 v"
b110 Y
b110 g
b110 n
b110 y
b10 D
b10 ."
b10 E"
b10 V"
b10 F"
b10 U"
b10 E
b10 /"
b10 9"
b10 G"
b1 >
b1 *"
b1 <"
b1 !#
b1 >"
b1 O"
b100 C"
b100 L"
b1000100 ^"
b11001000011100000100000 ;
b11001000011100000100000 X"
b11001000011100000100000 _"
b11001000011100000100000 b"
b100 &
b100 s"
b100 '
b100 J"
b100 S"
b100 g"
b100 t"
b100 z"
b1010 ,
b1010 f"
b1010 r"
b101 /
b101 d"
b101 l"
b101 0
b101 j
b101 k"
b101 w"
b101 8
b101 e"
b101 j"
b101 9
b101 i
b101 m
b101 i"
b101 o"
01
02
b110 Q
b110 p
b110 R
b110 s
b110 7"
b110 y"
b110 }"
b101 W
b101 w
b101 3"
b101 X
b101 x
b101 2"
b1000100 #
b1000100 H"
b1000100 \"
b111100 B
b111100 B"
b111100 Z"
b10000001000010000000000000010 C
b10000001000010000000000000010 D"
b10000001000010000000000000010 Y"
b1000000 :
b1000000 W"
b1000000 ]"
b111100 `"
b111100 a"
1!
#170000
0!
